%YAML 1.1
%TAG !u! tag:unity3d.com,2011:
--- !u!114 &-375222794832425868
MonoBehaviour:
  m_ObjectHideFlags: 3
  m_CorrespondingSourceObject: {fileID: 0}
  m_PrefabInstance: {fileID: 0}
  m_PrefabAsset: {fileID: 0}
  m_GameObject: {fileID: 0}
  m_Enabled: 1
  m_EditorHideFlags: 0
  m_Script: {fileID: 11500000, guid: 0d7593b3a9277ac4696b20006c21dde2, type: 3}
  m_Name: VisualEnvironment
  m_EditorClassIdentifier: 
  active: 1
  m_AdvancedMode: 0
  skyType:
    m_OverrideState: 1
    m_Value: 4
  skyAmbientMode:
    m_OverrideState: 1
    m_Value: 1
  fogType:
    m_OverrideState: 0
    m_Value: 0
--- !u!114 &-353643291538071614
MonoBehaviour:
  m_ObjectHideFlags: 3
  m_CorrespondingSourceObject: {fileID: 0}
  m_PrefabInstance: {fileID: 0}
  m_PrefabAsset: {fileID: 0}
  m_GameObject: {fileID: 0}
  m_Enabled: 1
  m_EditorHideFlags: 0
  m_Script: {fileID: 11500000, guid: 5e17fad69ea181b4483974138b566975, type: 3}
  m_Name: ScreenSpaceRefraction
  m_EditorClassIdentifier: 
  active: 1
  m_AdvancedMode: 0
  screenFadeDistance:
    m_OverrideState: 1
    m_Value: 1
    min: 0.001
    max: 1
--- !u!114 &11400000
MonoBehaviour:
  m_ObjectHideFlags: 0
  m_CorrespondingSourceObject: {fileID: 0}
  m_PrefabInstance: {fileID: 0}
  m_PrefabAsset: {fileID: 0}
  m_GameObject: {fileID: 0}
  m_Enabled: 1
  m_EditorHideFlags: 0
  m_Script: {fileID: 11500000, guid: d7fd9488000d3734a9e00ee676215985, type: 3}
  m_Name: Level2 Profile
  m_EditorClassIdentifier: 
  components:
  - {fileID: -375222794832425868}
  - {fileID: 3942504485429260563}
  - {fileID: 3920742766845278388}
  - {fileID: 7939039015973818758}
  - {fileID: -353643291538071614}
--- !u!114 &3920742766845278388
MonoBehaviour:
  m_ObjectHideFlags: 3
  m_CorrespondingSourceObject: {fileID: 0}
  m_PrefabInstance: {fileID: 0}
  m_PrefabAsset: {fileID: 0}
  m_GameObject: {fileID: 0}
  m_Enabled: 1
  m_EditorHideFlags: 0
  m_Script: {fileID: 11500000, guid: 953beb541740ddc499d005ee80c9ff29, type: 3}
  m_Name: Fog
  m_EditorClassIdentifier: 
  active: 1
  m_AdvancedMode: 0
  enabled:
    m_OverrideState: 1
    m_Value: 1
  colorMode:
    m_OverrideState: 1
    m_Value: 1
  color:
    m_OverrideState: 0
    m_Value: {r: 2.670157, g: 2.670157, b: 2.670157, a: 1}
    hdr: 1
    showAlpha: 0
    showEyeDropper: 1
  tint:
    m_OverrideState: 0
    m_Value: {r: 1, g: 1, b: 1, a: 1}
    hdr: 1
    showAlpha: 0
    showEyeDropper: 1
  maxFogDistance:
    m_OverrideState: 0
    m_Value: 1500
    min: 0
  mipFogMaxMip:
    m_OverrideState: 0
    m_Value: 0.5
    min: 0
    max: 1
  mipFogNear:
    m_OverrideState: 0
    m_Value: 0
    min: 0
  mipFogFar:
    m_OverrideState: 0
    m_Value: 1000
    min: 0
  baseHeight:
    m_OverrideState: 1
    m_Value: 40
  maximumHeight:
    m_OverrideState: 0
    m_Value: 1120
  albedo:
    m_OverrideState: 1
    m_Value: {r: 0.23417437, g: 0.20719118, b: 0.4528302, a: 1}
    hdr: 0
    showAlpha: 1
    showEyeDropper: 1
  meanFreePath:
    m_OverrideState: 1
    m_Value: 80
    min: 1
  enableVolumetricFog:
    m_OverrideState: 1
    m_Value: 1
  anisotropy:
    m_OverrideState: 0
    m_Value: 0
    min: -1
    max: 1
  globalLightProbeDimmer:
    m_OverrideState: 0
    m_Value: 1
    min: 0
    max: 1
  depthExtent:
    m_OverrideState: 0
    m_Value: 64
    min: 0.1
  sliceDistributionUniformity:
    m_OverrideState: 0
    m_Value: 0.75
    min: 0
    max: 1
  filter:
    m_OverrideState: 0
    m_Value: 0
--- !u!114 &3942504485429260563
MonoBehaviour:
  m_ObjectHideFlags: 3
  m_CorrespondingSourceObject: {fileID: 0}
  m_PrefabInstance: {fileID: 0}
  m_PrefabAsset: {fileID: 0}
  m_GameObject: {fileID: 0}
  m_Enabled: 1
  m_EditorHideFlags: 0
  m_Script: {fileID: 11500000, guid: d877ec3e844f2ca46830012e8e79319b, type: 3}
  m_Name: PhysicallyBasedSky
  m_EditorClassIdentifier: 
  active: 1
  m_AdvancedMode: 0
  rotation:
    m_OverrideState: 0
    m_Value: 0
    min: 0
    max: 360
  skyIntensityMode:
    m_OverrideState: 0
    m_Value: 0
  exposure:
    m_OverrideState: 0
    m_Value: 0
  multiplier:
    m_OverrideState: 0
    m_Value: 1
    min: 0
  upperHemisphereLuxValue:
    m_OverrideState: 0
    m_Value: 1
    min: 0
  upperHemisphereLuxColor:
    m_OverrideState: 0
    m_Value: {x: 0, y: 0, z: 0}
  desiredLuxValue:
    m_OverrideState: 0
    m_Value: 20000
  updateMode:
    m_OverrideState: 0
    m_Value: 0
  updatePeriod:
    m_OverrideState: 0
    m_Value: 0
    min: 0
  includeSunInBaking:
    m_OverrideState: 0
    m_Value: 1
  earthPreset:
    m_OverrideState: 1
    m_Value: 1
  sphericalMode:
    m_OverrideState: 1
    m_Value: 0
  seaLevel:
    m_OverrideState: 0
    m_Value: 0
  planetaryRadius:
    m_OverrideState: 0
    m_Value: 6378100
    min: 0
  planetCenterPosition:
    m_OverrideState: 0
    m_Value: {x: 0, y: -6378100, z: 0}
  airDensityR:
    m_OverrideState: 0
    m_Value: 0.04534
    min: 0
    max: 1
  airDensityG:
    m_OverrideState: 0
    m_Value: 0.10237241
    min: 0
    max: 1
  airDensityB:
    m_OverrideState: 0
    m_Value: 0.23264056
    min: 0
    max: 1
  airTint:
    m_OverrideState: 0
    m_Value: {r: 0.9, g: 0.9, b: 1, a: 1}
    hdr: 0
    showAlpha: 0
    showEyeDropper: 1
  airMaximumAltitude:
    m_OverrideState: 0
    m_Value: 55261.973
    min: 0
  aerosolDensity:
    m_OverrideState: 0
    m_Value: 0.01192826
    min: 0
    max: 1
  aerosolTint:
    m_OverrideState: 0
    m_Value: {r: 0.9, g: 0.9, b: 0.9, a: 1}
    hdr: 0
    showAlpha: 0
    showEyeDropper: 1
  aerosolMaximumAltitude:
    m_OverrideState: 0
    m_Value: 8289.296
    min: 0
  aerosolAnisotropy:
    m_OverrideState: 1
    m_Value: 0
    min: -1
    max: 1
  numberOfBounces:
    m_OverrideState: 0
    m_Value: 8
    min: 1
    max: 10
  groundTint:
    m_OverrideState: 0
    m_Value: {r: 0.4, g: 0.25, b: 0.15, a: 1}
    hdr: 0
    showAlpha: 0
    showEyeDropper: 0
  groundColorTexture:
    m_OverrideState: 0
    m_Value: {fileID: 0}
  groundEmissionTexture:
    m_OverrideState: 0
    m_Value: {fileID: 0}
  groundEmissionMultiplier:
    m_OverrideState: 0
    m_Value: 1
    min: 0
  planetRotation:
    m_OverrideState: 0
    m_Value: {x: 0, y: 0, z: 0}
  spaceEmissionTexture:
    m_OverrideState: 0
    m_Value: {fileID: 8900000, guid: c8f21f62fdb3e43c5b32917c84683698, type: 3}
  spaceEmissionMultiplier:
    m_OverrideState: 0
    m_Value: 1
    min: 0
  spaceRotation:
    m_OverrideState: 0
    m_Value: {x: 0, y: 0, z: 0}
  colorSaturation:
    m_OverrideState: 0
    m_Value: 1
    min: 0
    max: 1
  alphaSaturation:
    m_OverrideState: 0
    m_Value: 1
    min: 0
    max: 1
  alphaMultiplier:
    m_OverrideState: 0
    m_Value: 1
    min: 0
    max: 1
  horizonTint:
    m_OverrideState: 0
    m_Value: {r: 1, g: 1, b: 1, a: 1}
    hdr: 0
    showAlpha: 0
    showEyeDropper: 0
  zenithTint:
    m_OverrideState: 0
    m_Value: {r: 1, g: 1, b: 1, a: 1}
    hdr: 0
    showAlpha: 0
    showEyeDropper: 0
  horizonZenithShift:
    m_OverrideState: 0
    m_Value: 0
    min: -1
    max: 1
--- !u!114 &7939039015973818758
MonoBehaviour:
  m_ObjectHideFlags: 3
  m_CorrespondingSourceObject: {fileID: 0}
  m_PrefabInstance: {fileID: 0}
  m_PrefabAsset: {fileID: 0}
  m_GameObject: {fileID: 0}
  m_Enabled: 1
  m_EditorHideFlags: 0
  m_Script: {fileID: 11500000, guid: da5ab44aadfb1804db5fd470983ac1b8, type: 3}
  m_Name: LiftGammaGain
  m_EditorClassIdentifier: 
  active: 1
  m_AdvancedMode: 0
  lift:
    m_OverrideState: 1
    m_Value: {x: 0.48150146, y: 0.61608446, z: 1, w: 0}
  gamma:
    m_OverrideState: 1
    m_Value: {x: 0.72693783, y: 0.7897002, z: 1, w: 0}
  gain:
    m_OverrideState: 1
    m_Value: {x: 0.66806185, y: 0.77189875, z: 1, w: 0}
